{
	"info": {
		"_postman_id": "87194a56-21c7-4ce7-8f0e-6583665eb329",
		"name": "Lakshya",
		"schema": "https://schema.getpostman.com/json/collection/v2.1.0/collection.json"
	},
	"item": [
		{
			"name": "Token Generator",
			"item": [
				{
					"name": "http://localhost:8080/oauth/token",
					"request": {
						"auth": {
							"type": "basic",
							"basic": [
								{
									"key": "password",
									"value": "devglan-secret",
									"type": "string"
								},
								{
									"key": "username",
									"value": "devglan-client",
									"type": "string"
								}
							]
						},
						"method": "POST",
						"header": [],
						"body": {
							"mode": "formdata",
							"formdata": [
								{
									"key": "username",
									"value": "admin",
									"type": "text"
								},
								{
									"key": "password",
									"value": "admin",
									"type": "text"
								},
								{
									"key": "grant_type",
									"value": "password",
									"type": "text"
								}
							]
						},
						"url": {
							"raw": "http://localhost:8080/oauth/token",
							"protocol": "http",
							"host": [
								"localhost"
							],
							"port": "8080",
							"path": [
								"oauth",
								"token"
							],
							"query": [
								{
									"key": "username",
									"value": "admin",
									"disabled": true
								},
								{
									"key": "password",
									"value": "admin",
									"disabled": true
								}
							]
						}
					},
					"response": []
				}
			],
			"protocolProfileBehavior": {}
		},
		{
			"name": "Academic Year",
			"item": [
				{
					"name": "lakshyaclasses.com:8082/api/academicyear",
					"request": {
						"method": "DELETE",
						"header": [
							{
								"key": "Content-Type",
								"name": "Content-Type",
								"value": "application/json",
								"type": "text"
							}
						],
						"body": {
							"mode": "raw",
							"raw": "{\n\t\"name\":\"2019-20\",\n\t\"remark\":\"no remarks\"\n}"
						},
						"url": {
							"raw": "lakshyaclasses.com:8082/api/academicyear/2",
							"host": [
								"lakshyaclasses",
								"com"
							],
							"port": "8082",
							"path": [
								"api",
								"academicyear",
								"2"
							]
						}
					},
					"response": []
				},
				{
					"name": "lakshyaclasses.com:8082/api/academicyear",
					"request": {
						"method": "POST",
						"header": [
							{
								"key": "Content-Type",
								"name": "Content-Type",
								"value": "application/json",
								"type": "text"
							}
						],
						"body": {
							"mode": "raw",
							"raw": "{\n\t\"name\":\"2019-20\",\n\t\"remark\":\"no remarks\"\n}"
						},
						"url": {
							"raw": "lakshyaclasses.com:8082/api/academicyear",
							"host": [
								"lakshyaclasses",
								"com"
							],
							"port": "8082",
							"path": [
								"api",
								"academicyear"
							]
						}
					},
					"response": []
				},
				{
					"name": "lakshyaclasses.com:8082/api/academicyear Copy",
					"request": {
						"method": "PUT",
						"header": [
							{
								"key": "Content-Type",
								"name": "Content-Type",
								"value": "application/json",
								"type": "text"
							}
						],
						"body": {
							"mode": "raw",
							"raw": "{\n\t\"name\":\"2019-20\",\n\t\"remark\":\"no remarks\"\n}"
						},
						"url": {
							"raw": "lakshyaclasses.com:8082/api/academicyear/1",
							"host": [
								"lakshyaclasses",
								"com"
							],
							"port": "8082",
							"path": [
								"api",
								"academicyear",
								"1"
							]
						}
					},
					"response": []
				},
				{
					"name": "http://localhost:8080/api/academicyear",
					"request": {
						"method": "GET",
						"header": [],
						"url": {
							"raw": "http://localhost:8080/api/academicyear",
							"protocol": "http",
							"host": [
								"localhost"
							],
							"port": "8080",
							"path": [
								"api",
								"academicyear"
							]
						}
					},
					"response": []
				}
			],
			"protocolProfileBehavior": {}
		},
		{
			"name": "Branch Category",
			"item": [
				{
					"name": "http://localhost:8080/api/branchcategory",
					"request": {
						"auth": {
							"type": "noauth"
						},
						"method": "GET",
						"header": [],
						"url": {
							"raw": "lakshyaclasses.com:8082/api/branchcategory",
							"host": [
								"lakshyaclasses",
								"com"
							],
							"port": "8082",
							"path": [
								"api",
								"branchcategory"
							]
						}
					},
					"response": []
				},
				{
					"name": "http://localhost:8080/api/branchcategory",
					"request": {
						"auth": {
							"type": "noauth"
						},
						"method": "POST",
						"header": [
							{
								"key": "Content-Type",
								"name": "Content-Type",
								"value": "application/json",
								"type": "text"
							}
						],
						"body": {
							"mode": "raw",
							"raw": "{\n\t\"name\" :  \"secondname\",\n\t\"remark\" : \"secondremark\"\n}"
						},
						"url": {
							"raw": "http://localhost:8080/api/branchcategory",
							"protocol": "http",
							"host": [
								"localhost"
							],
							"port": "8080",
							"path": [
								"api",
								"branchcategory"
							]
						}
					},
					"response": []
				},
				{
					"name": "lakshyaclasses.com:8082/api/branchcategory/3",
					"request": {
						"auth": {
							"type": "bearer",
							"bearer": [
								{
									"key": "token",
									"value": "26a33779-75d1-42b0-b627-28816b145305",
									"type": "string"
								}
							]
						},
						"method": "PUT",
						"header": [
							{
								"key": "Content-Type",
								"name": "Content-Type",
								"value": "application/json",
								"type": "text"
							}
						],
						"body": {
							"mode": "raw",
							"raw": "{\n\t\"id\" : \"3\",\n\t\"name\" : \"changedFirstName\",\n\t\"remark\" : \"changedFirstRemark\"\n}"
						},
						"url": {
							"raw": "lakshyaclasses.com:8082/api/branchcategory/3",
							"host": [
								"lakshyaclasses",
								"com"
							],
							"port": "8082",
							"path": [
								"api",
								"branchcategory",
								"3"
							]
						}
					},
					"response": []
				},
				{
					"name": "http://localhost:8080/api/branchcategory/1",
					"request": {
						"auth": {
							"type": "noauth"
						},
						"method": "DELETE",
						"header": [],
						"url": {
							"raw": "http://localhost:8080/api/branchcategory/1",
							"protocol": "http",
							"host": [
								"localhost"
							],
							"port": "8080",
							"path": [
								"api",
								"branchcategory",
								"1"
							]
						}
					},
					"response": []
				},
				{
					"name": "lakshyaclasses.com:8082/api/branchcategory",
					"request": {
						"method": "PUT",
						"header": [],
						"url": {
							"raw": "lakshyaclasses.com:8082/api/branchcategory/changestatus/1",
							"host": [
								"lakshyaclasses",
								"com"
							],
							"port": "8082",
							"path": [
								"api",
								"branchcategory",
								"changestatus",
								"1"
							]
						}
					},
					"response": []
				}
			],
			"protocolProfileBehavior": {}
		},
		{
			"name": "Branches",
			"item": [
				{
					"name": "http://localhost:8080/api/branch",
					"protocolProfileBehavior": {
						"disableBodyPruning": true
					},
					"request": {
						"auth": {
							"type": "noauth"
						},
						"method": "GET",
						"header": [
							{
								"key": "Content-Type",
								"name": "Content-Type",
								"type": "text",
								"value": "application/json"
							}
						],
						"body": {
							"mode": "raw",
							"raw": ""
						},
						"url": {
							"raw": "http://localhost:8080/api/branch",
							"protocol": "http",
							"host": [
								"localhost"
							],
							"port": "8080",
							"path": [
								"api",
								"branch"
							]
						}
					},
					"response": []
				},
				{
					"name": "http://localhost:8080/api/branch",
					"request": {
						"auth": {
							"type": "noauth"
						},
						"method": "POST",
						"header": [
							{
								"key": "Content-Type",
								"name": "Content-Type",
								"value": "application/json",
								"type": "text"
							}
						],
						"body": {
							"mode": "raw",
							"raw": "{\n    \"name\": \"New Branch 1\",\n    \"code\": \"B1\",\n    \"address\": \"ABC Tower,Kochi\",\n    \"area\": \"Palarivattom\",\n    \"city\": \"Kochi\",\n    \"state\": \"Kerala\",\n    \"pincode\": \"684574\",\n    \"branchCategoryId\": 1,\n    \"branchPhones\": [\n        {\n            \"phone\": \"9633720788\"\n        },\n        {\n            \"phone\": \"8606906241\"\n        }\n    ],\n    \"branchLandLines\": [\n        {\n            \"phone\": \"0483 2485452\"\n        },\n        {\n            \"phone\": \"0483 2484578\"\n        }\n    ]\n}"
						},
						"url": {
							"raw": "http://localhost:8080/api/branch",
							"protocol": "http",
							"host": [
								"localhost"
							],
							"port": "8080",
							"path": [
								"api",
								"branch"
							]
						}
					},
					"response": []
				},
				{
					"name": "http://localhost:8080/api/branch/1",
					"request": {
						"auth": {
							"type": "noauth"
						},
						"method": "PUT",
						"header": [
							{
								"key": "Content-Type",
								"name": "Content-Type",
								"value": "application/json",
								"type": "text"
							}
						],
						"body": {
							"mode": "raw",
							"raw": "{\n    \"name\": \"New Branch 1 Changed\",\n    \"code\": \"B1\",\n    \"address\": \"ABC Tower,Kochi\",\n    \"area\": \"Palarivattom\",\n    \"city\": \"Kochi\",\n    \"state\": \"Kerala\",\n    \"pincode\": \"684574\",\n    \"branchCategoryId\": 2,\n    \"branchPhones\": [\n        {\n            \"phone\": \"9633720788\"\n        },\n        {\n            \"phone\": \"8606906241\"\n        }\n    ],\n    \"branchLandLines\": [\n        {\n            \"phone\": \"0483 2485452\"\n        },\n        {\n            \"phone\": \"0483 2484578\"\n        }\n    ]\n}"
						},
						"url": {
							"raw": "http://localhost:8080/api/branch/2",
							"protocol": "http",
							"host": [
								"localhost"
							],
							"port": "8080",
							"path": [
								"api",
								"branch",
								"2"
							]
						}
					},
					"response": []
				},
				{
					"name": "http://localhost:8080/api/branch",
					"request": {
						"auth": {
							"type": "bearer",
							"bearer": [
								{
									"key": "token",
									"value": "cdacff05-de1a-48f5-8708-7b06fe7b699a",
									"type": "string"
								}
							]
						},
						"method": "DELETE",
						"header": [],
						"url": {
							"raw": "lakshyaclasses.com:8082/api/branch/1",
							"host": [
								"lakshyaclasses",
								"com"
							],
							"port": "8082",
							"path": [
								"api",
								"branch",
								"1"
							]
						}
					},
					"response": []
				},
				{
					"name": "lakshyaclasses.com:8082api/branch/changestatus/2",
					"request": {
						"method": "PUT",
						"header": [],
						"url": {
							"raw": "lakshyaclasses.com:8082/api/branch/changestatus/2",
							"host": [
								"lakshyaclasses",
								"com"
							],
							"port": "8082",
							"path": [
								"api",
								"branch",
								"changestatus",
								"2"
							]
						}
					},
					"response": []
				}
			],
			"protocolProfileBehavior": {}
		},
		{
			"name": "Batch Category",
			"item": [
				{
					"name": "lakshyaclasses.com:8082/api/batch",
					"request": {
						"method": "GET",
						"header": [],
						"url": {
							"raw": "lakshyaclasses.com:8082/api/batch",
							"host": [
								"lakshyaclasses",
								"com"
							],
							"port": "8082",
							"path": [
								"api",
								"batch"
							]
						}
					},
					"response": []
				},
				{
					"name": "lakshyaclasses.com:8082/api/batch",
					"request": {
						"method": "POST",
						"header": [
							{
								"key": "Content-Type",
								"name": "Content-Type",
								"value": "application/json",
								"type": "text"
							}
						],
						"body": {
							"mode": "raw",
							"raw": "{\n    \"name\": \"S3 Batch\",\n    \"code\": \"S3\",\n    \"branchId\": 2,\n    \"courseId\": 2,\n    \"academicYearId\": 1,\n    \"remark\": \"First Batch\"\n}"
						},
						"url": {
							"raw": "lakshyaclasses.com:8082/api/batch",
							"host": [
								"lakshyaclasses",
								"com"
							],
							"port": "8082",
							"path": [
								"api",
								"batch"
							]
						}
					},
					"response": []
				},
				{
					"name": "lakshyaclasses.com:8082/api/batch/10",
					"request": {
						"auth": {
							"type": "bearer",
							"bearer": [
								{
									"key": "token",
									"value": "26a33779-75d1-42b0-b627-28816b145305",
									"type": "string"
								}
							]
						},
						"method": "PUT",
						"header": [],
						"url": {
							"raw": "lakshyaclasses.com:8082/api/batch/10",
							"host": [
								"lakshyaclasses",
								"com"
							],
							"port": "8082",
							"path": [
								"api",
								"batch",
								"10"
							]
						}
					},
					"response": []
				},
				{
					"name": "lakshyaclasses.com:8082/api/batch/10",
					"request": {
						"auth": {
							"type": "bearer",
							"bearer": [
								{
									"key": "token",
									"value": "26a33779-75d1-42b0-b627-28816b145305",
									"type": "string"
								}
							]
						},
						"method": "DELETE",
						"header": [],
						"url": {
							"raw": "lakshyaclasses.com:8082/api/batch/10",
							"host": [
								"lakshyaclasses",
								"com"
							],
							"port": "8082",
							"path": [
								"api",
								"batch",
								"10"
							]
						}
					},
					"response": []
				},
				{
					"name": "lakshyaclasses.com:8082/api/batch/changestatus/1",
					"request": {
						"method": "PUT",
						"header": [],
						"url": {
							"raw": "lakshyaclasses.com:8082/api/batch/changestatus/1",
							"host": [
								"lakshyaclasses",
								"com"
							],
							"port": "8082",
							"path": [
								"api",
								"batch",
								"changestatus",
								"1"
							]
						}
					},
					"response": []
				}
			],
			"protocolProfileBehavior": {}
		},
		{
			"name": "Course",
			"item": [
				{
					"name": "http://localhost:8080/api/course",
					"request": {
						"auth": {
							"type": "noauth"
						},
						"method": "GET",
						"header": [],
						"url": {
							"raw": "http://localhost:8080/api/course",
							"protocol": "http",
							"host": [
								"localhost"
							],
							"port": "8080",
							"path": [
								"api",
								"course"
							]
						}
					},
					"response": []
				},
				{
					"name": "http://localhost:8080/api/course",
					"request": {
						"auth": {
							"type": "noauth"
						},
						"method": "POST",
						"header": [
							{
								"key": "Content-Type",
								"name": "Content-Type",
								"value": "application/json",
								"type": "text"
							}
						],
						"body": {
							"mode": "raw",
							"raw": "{\n    \"name\": \"Plus 1\",\n    \"code\": \"P1\",\n    \"remark\": \"First Class\",\n    \"branchId\":1\n}"
						},
						"url": {
							"raw": "http://localhost:8080/api/course",
							"protocol": "http",
							"host": [
								"localhost"
							],
							"port": "8080",
							"path": [
								"api",
								"course"
							]
						}
					},
					"response": []
				},
				{
					"name": "lakshyaclasses.com:8082/api/course",
					"request": {
						"auth": {
							"type": "bearer",
							"bearer": [
								{
									"key": "token",
									"value": "cdacff05-de1a-48f5-8708-7b06fe7b699a",
									"type": "string"
								}
							]
						},
						"method": "PUT",
						"header": [
							{
								"key": "Content-Type",
								"name": "Content-Type",
								"value": "application/json",
								"type": "text"
							}
						],
						"body": {
							"mode": "raw",
							"raw": "{\n    \"name\": \"Plus 1 updated\",\n    \"code\": \"P1\",\n    \"id\": 1,\n    \"remark\": \"Updated Class\"\n}"
						},
						"url": {
							"raw": "lakshyaclasses.com:8082/api/course/4",
							"host": [
								"lakshyaclasses",
								"com"
							],
							"port": "8082",
							"path": [
								"api",
								"course",
								"4"
							]
						}
					},
					"response": []
				},
				{
					"name": "http://localhost:8080/api/course/1",
					"request": {
						"auth": {
							"type": "noauth"
						},
						"method": "DELETE",
						"header": [],
						"url": {
							"raw": "http://localhost:8080/api/course/1",
							"protocol": "http",
							"host": [
								"localhost"
							],
							"port": "8080",
							"path": [
								"api",
								"course",
								"1"
							]
						}
					},
					"response": []
				},
				{
					"name": "lakshyaclasses.com:8082/api/course/changestatus/2",
					"request": {
						"method": "PUT",
						"header": [],
						"url": {
							"raw": "lakshyaclasses.com:8082/api/course/changestatus/2",
							"host": [
								"lakshyaclasses",
								"com"
							],
							"port": "8082",
							"path": [
								"api",
								"course",
								"changestatus",
								"2"
							]
						}
					},
					"response": []
				}
			],
			"protocolProfileBehavior": {}
		},
		{
			"name": "Subject",
			"item": [
				{
					"name": "lakshyaclasses.com:8082/api/subject",
					"request": {
						"method": "GET",
						"header": [],
						"url": {
							"raw": "lakshyaclasses.com:8082/api/subject",
							"host": [
								"lakshyaclasses",
								"com"
							],
							"port": "8082",
							"path": [
								"api",
								"subject"
							]
						}
					},
					"response": []
				},
				{
					"name": "http://localhost:8080/api/subject",
					"request": {
						"method": "POST",
						"header": [
							{
								"key": "Content-Type",
								"name": "Content-Type",
								"value": "application/json",
								"type": "text"
							}
						],
						"body": {
							"mode": "raw",
							"raw": "{\n    \"name\": \"Plus 1\",\n    \"code\": \"P1\",\n    \"courseId\": 2,\n    \"branchId\": \"2\",\n    \"remark\": \"New Subject\"\n}"
						},
						"url": {
							"raw": "lakshyaclasses.com:8082/api/subject",
							"host": [
								"lakshyaclasses",
								"com"
							],
							"port": "8082",
							"path": [
								"api",
								"subject"
							]
						}
					},
					"response": []
				},
				{
					"name": "lakshyaclasses.com:8082/api/subject",
					"request": {
						"auth": {
							"type": "bearer",
							"bearer": [
								{
									"key": "token",
									"value": "cdacff05-de1a-48f5-8708-7b06fe7b699a",
									"type": "string"
								}
							]
						},
						"method": "PUT",
						"header": [
							{
								"key": "Content-Type",
								"name": "Content-Type",
								"value": "application/json",
								"type": "text"
							}
						],
						"body": {
							"mode": "raw",
							"raw": "{\n\t\"id\" : 1,\n    \"name\": \"Plus 1\",\n    \"code\": \"P1\",\n    \"courseId\": 1,\n    \"branchId\": \"2\",\n    \"remark\": \"Updated Subject\"\n}"
						},
						"url": {
							"raw": "lakshyaclasses.com:8082/api/subject/5",
							"host": [
								"lakshyaclasses",
								"com"
							],
							"port": "8082",
							"path": [
								"api",
								"subject",
								"5"
							]
						}
					},
					"response": []
				},
				{
					"name": "lakshyaclasses.com:8082/api/subject/3",
					"request": {
						"auth": {
							"type": "bearer",
							"bearer": [
								{
									"key": "token",
									"value": "26a33779-75d1-42b0-b627-28816b145305",
									"type": "string"
								}
							]
						},
						"method": "DELETE",
						"header": [],
						"url": {
							"raw": "lakshyaclasses.com:8082/api/subject/3",
							"host": [
								"lakshyaclasses",
								"com"
							],
							"port": "8082",
							"path": [
								"api",
								"subject",
								"3"
							]
						}
					},
					"response": []
				},
				{
					"name": "lakshyaclasses.com:8082/api/subject/changestatus/1",
					"request": {
						"method": "PUT",
						"header": [],
						"url": {
							"raw": "lakshyaclasses.com:8082/api/subject/changestatus/1",
							"host": [
								"lakshyaclasses",
								"com"
							],
							"port": "8082",
							"path": [
								"api",
								"subject",
								"changestatus",
								"1"
							]
						}
					},
					"response": []
				}
			],
			"protocolProfileBehavior": {}
		},
		{
			"name": "Chapter",
			"item": [
				{
					"name": "lakshyaclasses.com:8082/api/chapter",
					"request": {
						"method": "GET",
						"header": [],
						"url": {
							"raw": "lakshyaclasses.com:8082/api/chapter",
							"host": [
								"lakshyaclasses",
								"com"
							],
							"port": "8082",
							"path": [
								"api",
								"chapter"
							]
						}
					},
					"response": []
				},
				{
					"name": "lakshyaclasses.com:8082/api/chapter",
					"request": {
						"auth": {
							"type": "bearer",
							"bearer": [
								{
									"key": "token",
									"value": "26a33779-75d1-42b0-b627-28816b145305",
									"type": "string"
								}
							]
						},
						"method": "POST",
						"header": [
							{
								"key": "Content-Type",
								"name": "Content-Type",
								"value": "application/json",
								"type": "text"
							}
						],
						"body": {
							"mode": "raw",
							"raw": "{\n    \"name\": \"Java Tutorials\",\n    \"hours\": \"3\",\n    \"subjectId\": 2,\n    \"remark\": \"First Subject\"\n}"
						},
						"url": {
							"raw": "lakshyaclasses.com:8082/api/chapter",
							"host": [
								"lakshyaclasses",
								"com"
							],
							"port": "8082",
							"path": [
								"api",
								"chapter"
							]
						}
					},
					"response": []
				},
				{
					"name": "lakshyaclasses.com:8082/api/chapter",
					"request": {
						"auth": {
							"type": "bearer",
							"bearer": [
								{
									"key": "token",
									"value": "26a33779-75d1-42b0-b627-28816b145305",
									"type": "string"
								}
							]
						},
						"method": "PUT",
						"header": [
							{
								"key": "Content-Type",
								"name": "Content-Type",
								"value": "application/json",
								"type": "text"
							}
						],
						"body": {
							"mode": "raw",
							"raw": "{\n    \"name\": \"Java Tutorials\",\n    \"hours\": \"3\",\n    \"subjectId\": 2,\n    \"remark\": \"Updated Subject\"\n}"
						},
						"url": {
							"raw": "lakshyaclasses.com:8082/api/chapter",
							"host": [
								"lakshyaclasses",
								"com"
							],
							"port": "8082",
							"path": [
								"api",
								"chapter"
							]
						}
					},
					"response": []
				},
				{
					"name": "lakshyaclasses.com:8082/api/chapter/1",
					"request": {
						"auth": {
							"type": "bearer",
							"bearer": [
								{
									"key": "token",
									"value": "26a33779-75d1-42b0-b627-28816b145305",
									"type": "string"
								}
							]
						},
						"method": "DELETE",
						"header": [],
						"url": {
							"raw": "lakshyaclasses.com:8082/api/chapter/1",
							"host": [
								"lakshyaclasses",
								"com"
							],
							"port": "8082",
							"path": [
								"api",
								"chapter",
								"1"
							]
						}
					},
					"response": []
				},
				{
					"name": "lakshyaclasses.com:8082/api/chapter",
					"request": {
						"method": "PUT",
						"header": [],
						"url": {
							"raw": "lakshyaclasses.com:8082/api/chapter",
							"host": [
								"lakshyaclasses",
								"com"
							],
							"port": "8082",
							"path": [
								"api",
								"chapter"
							]
						}
					},
					"response": []
				}
			],
			"protocolProfileBehavior": {}
		},
		{
			"name": "Enquiry",
			"item": [
				{
					"name": "lakshyaclasses.com:8082/api/enquirysource",
					"request": {
						"method": "GET",
						"header": [],
						"url": {
							"raw": "lakshyaclasses.com:8082/api/enquirysource",
							"host": [
								"lakshyaclasses",
								"com"
							],
							"port": "8082",
							"path": [
								"api",
								"enquirysource"
							]
						}
					},
					"response": []
				},
				{
					"name": "lakshyaclasses.com:8082/api/enquirysource",
					"request": {
						"method": "POST",
						"header": [
							{
								"key": "Content-Type",
								"name": "Content-Type",
								"value": "application/json",
								"type": "text"
							}
						],
						"body": {
							"mode": "raw",
							"raw": "{\n    \"name\": \"Facebook\",\n    \"color\": \"#fffff\",\n    \"remark\": \"from facebook ads\"\n}"
						},
						"url": {
							"raw": "lakshyaclasses.com:8082/api/enquirysource",
							"host": [
								"lakshyaclasses",
								"com"
							],
							"port": "8082",
							"path": [
								"api",
								"enquirysource"
							]
						}
					},
					"response": []
				},
				{
					"name": "lakshyaclasses.com:8082/api/enquirysource/1",
					"request": {
						"auth": {
							"type": "bearer",
							"bearer": [
								{
									"key": "token",
									"value": "26a33779-75d1-42b0-b627-28816b145305",
									"type": "string"
								}
							]
						},
						"method": "PUT",
						"header": [
							{
								"key": "Content-Type",
								"name": "Content-Type",
								"value": "application/json",
								"type": "text"
							}
						],
						"body": {
							"mode": "raw",
							"raw": "{\n\n    \"name\": \"Facebook changed\",\n    \"color\": \"#fffff\",\n    \"remark\": \"from facebook ads\"\n}"
						},
						"url": {
							"raw": "lakshyaclasses.com:8082/api/enquirysource/1",
							"host": [
								"lakshyaclasses",
								"com"
							],
							"port": "8082",
							"path": [
								"api",
								"enquirysource",
								"1"
							]
						}
					},
					"response": []
				},
				{
					"name": "lakshyaclasses.com:8082/api/enquirysource/1",
					"request": {
						"auth": {
							"type": "bearer",
							"bearer": [
								{
									"key": "token",
									"value": "26a33779-75d1-42b0-b627-28816b145305",
									"type": "string"
								}
							]
						},
						"method": "DELETE",
						"header": [],
						"url": {
							"raw": "lakshyaclasses.com:8082/api/enquirysource/1",
							"host": [
								"lakshyaclasses",
								"com"
							],
							"port": "8082",
							"path": [
								"api",
								"enquirysource",
								"1"
							]
						}
					},
					"response": []
				},
				{
					"name": "lakshyaclasses.com:8082/api/enquirysource",
					"request": {
						"method": "PUT",
						"header": [],
						"url": {
							"raw": "lakshyaclasses.com:8082/api/enquirysource/changestatus/3",
							"host": [
								"lakshyaclasses",
								"com"
							],
							"port": "8082",
							"path": [
								"api",
								"enquirysource",
								"changestatus",
								"3"
							]
						}
					},
					"response": []
				}
			],
			"protocolProfileBehavior": {}
		},
		{
			"name": "Enquiry Stage",
			"item": [
				{
					"name": "lakshyaclasses.com:8082/api/enquirystage",
					"request": {
						"method": "GET",
						"header": [],
						"url": {
							"raw": "lakshyaclasses.com:8082/api/enquirystage",
							"host": [
								"lakshyaclasses",
								"com"
							],
							"port": "8082",
							"path": [
								"api",
								"enquirystage"
							]
						}
					},
					"response": []
				},
				{
					"name": "lakshyaclasses.com:8082/api/enquirystage/1",
					"request": {
						"auth": {
							"type": "bearer",
							"bearer": [
								{
									"key": "token",
									"value": "cdacff05-de1a-48f5-8708-7b06fe7b699a",
									"type": "string"
								}
							]
						},
						"method": "DELETE",
						"header": [],
						"url": {
							"raw": "lakshyaclasses.com:8082/api/enquirystage/1",
							"host": [
								"lakshyaclasses",
								"com"
							],
							"port": "8082",
							"path": [
								"api",
								"enquirystage",
								"1"
							]
						}
					},
					"response": []
				},
				{
					"name": "lakshyaclasses.com:8082/api/enquirystage/1",
					"request": {
						"auth": {
							"type": "bearer",
							"bearer": [
								{
									"key": "token",
									"value": "cdacff05-de1a-48f5-8708-7b06fe7b699a",
									"type": "string"
								}
							]
						},
						"method": "PUT",
						"header": [
							{
								"key": "Content-Type",
								"name": "Content-Type",
								"value": "application/json",
								"type": "text"
							}
						],
						"body": {
							"mode": "raw",
							"raw": "{\n    \"name\": \"Process Updated\",\n    \"color\": \"#fffff\",\n    \"remark\": \"Process Stage\"\n}"
						},
						"url": {
							"raw": "lakshyaclasses.com:8082/api/enquirystage/1",
							"host": [
								"lakshyaclasses",
								"com"
							],
							"port": "8082",
							"path": [
								"api",
								"enquirystage",
								"1"
							]
						}
					},
					"response": []
				},
				{
					"name": "lakshyaclasses.com:8082/api/enquirystage",
					"request": {
						"method": "POST",
						"header": [
							{
								"key": "Content-Type",
								"name": "Content-Type",
								"value": "application/json",
								"type": "text"
							}
						],
						"body": {
							"mode": "raw",
							"raw": "{\n    \"name\": \"Process\",\n    \"color\": \"#fffff\",\n    \"remark\": \"Process Stage\"\n}"
						},
						"url": {
							"raw": "lakshyaclasses.com:8082/api/enquirystage",
							"host": [
								"lakshyaclasses",
								"com"
							],
							"port": "8082",
							"path": [
								"api",
								"enquirystage"
							]
						}
					},
					"response": []
				},
				{
					"name": "lakshyaclasses.com:8082/api/enquirystage/changestatus/2",
					"request": {
						"method": "PUT",
						"header": [],
						"url": {
							"raw": "lakshyaclasses.com:8082/api/enquirystage/changestatus/2",
							"host": [
								"lakshyaclasses",
								"com"
							],
							"port": "8082",
							"path": [
								"api",
								"enquirystage",
								"changestatus",
								"2"
							]
						}
					},
					"response": []
				}
			],
			"protocolProfileBehavior": {}
		},
		{
			"name": "Loss Reason",
			"item": [
				{
					"name": "lakshyaclasses.com:8082/api/lossreason",
					"request": {
						"method": "GET",
						"header": [],
						"url": {
							"raw": "lakshyaclasses.com:8082/api/lossreason",
							"host": [
								"lakshyaclasses",
								"com"
							],
							"port": "8082",
							"path": [
								"api",
								"lossreason"
							]
						}
					},
					"response": []
				},
				{
					"name": "lakshyaclasses.com:8082/api/lossreason",
					"request": {
						"method": "POST",
						"header": [
							{
								"key": "Content-Type",
								"name": "Content-Type",
								"value": "application/json",
								"type": "text"
							}
						],
						"body": {
							"mode": "raw",
							"raw": "{\n    \"name\": \"Not Interested 2\",\n    \"color\": \"#FFFFFF\",\n    \"remark\": \"Not Interested 2\"\n}"
						},
						"url": {
							"raw": "lakshyaclasses.com:8082/api/lossreason",
							"host": [
								"lakshyaclasses",
								"com"
							],
							"port": "8082",
							"path": [
								"api",
								"lossreason"
							]
						}
					},
					"response": []
				},
				{
					"name": "lakshyaclasses.com:8082/api/lossreason/1",
					"request": {
						"auth": {
							"type": "bearer",
							"bearer": [
								{
									"key": "token",
									"value": "cdacff05-de1a-48f5-8708-7b06fe7b699a",
									"type": "string"
								}
							]
						},
						"method": "PUT",
						"header": [
							{
								"key": "Content-Type",
								"name": "Content-Type",
								"value": "application/json",
								"type": "text"
							}
						],
						"body": {
							"mode": "raw",
							"raw": "{\n    \"name\": \"Not Interested updated\",\n    \"color\": \"#FFFFFF\",\n    \"remark\": \"Not Interested\"\n}"
						},
						"url": {
							"raw": "lakshyaclasses.com:8082/api/lossreason/1",
							"host": [
								"lakshyaclasses",
								"com"
							],
							"port": "8082",
							"path": [
								"api",
								"lossreason",
								"1"
							]
						}
					},
					"response": []
				},
				{
					"name": "lakshyaclasses.com:8082/api/lossreason/1",
					"request": {
						"auth": {
							"type": "bearer",
							"bearer": [
								{
									"key": "token",
									"value": "cdacff05-de1a-48f5-8708-7b06fe7b699a",
									"type": "string"
								}
							]
						},
						"method": "DELETE",
						"header": [],
						"url": {
							"raw": "lakshyaclasses.com:8082/api/lossreason/1",
							"host": [
								"lakshyaclasses",
								"com"
							],
							"port": "8082",
							"path": [
								"api",
								"lossreason",
								"1"
							]
						}
					},
					"response": []
				},
				{
					"name": "lakshyaclasses.com:8082/api/lossreason/changestatus/2",
					"request": {
						"method": "PUT",
						"header": [],
						"url": {
							"raw": "lakshyaclasses.com:8082/api/lossreason/changestatus/2",
							"host": [
								"lakshyaclasses",
								"com"
							],
							"port": "8082",
							"path": [
								"api",
								"lossreason",
								"changestatus",
								"2"
							]
						}
					},
					"response": []
				}
			],
			"protocolProfileBehavior": {}
		},
		{
			"name": "Online Exam",
			"item": [
				{
					"name": "http://localhost:8080/api/onlineexam",
					"request": {
						"method": "GET",
						"header": [],
						"url": {
							"raw": ""
						}
					},
					"response": [
						{
							"name": "http://localhost:8080/api/onlineexam",
							"originalRequest": {
								"method": "POST",
								"header": [
									{
										"key": "Content-Type",
										"name": "Content-Type",
										"value": "application/json",
										"type": "text"
									}
								],
								"body": {
									"mode": "raw",
									"raw": "{\n    \"name\":\"first exam\",\n    \"examType\": \"S3\",\n    \"examModel\": 2,\n    \"durationHours\": 2,\n    \"durationMinutes\": 1,\n    \"correctMark\": 10,\n    \"negativeMark\": 10\n}",
									"options": {
										"raw": {
											"language": "json"
										}
									}
								},
								"url": {
									"raw": "http://localhost:8080/api/onlineexam",
									"protocol": "http",
									"host": [
										"localhost"
									],
									"port": "8080",
									"path": [
										"api",
										"onlineexam"
									]
								}
							},
							"status": "OK",
							"code": 200,
							"_postman_previewlanguage": "json",
							"header": [
								{
									"key": "Access-Control-Allow-Origin",
									"value": "*"
								},
								{
									"key": "Access-Control-Allow-Methods",
									"value": "POST, GET, OPTIONS, DELETE, PUT"
								},
								{
									"key": "Access-Control-Max-Age",
									"value": "3600"
								},
								{
									"key": "Access-Control-Allow-Headers",
									"value": "x-requested-with, authorization, x-auth-token, origin, content-type, accept"
								},
								{
									"key": "X-Content-Type-Options",
									"value": "nosniff"
								},
								{
									"key": "X-XSS-Protection",
									"value": "1; mode=block"
								},
								{
									"key": "Cache-Control",
									"value": "no-cache, no-store, max-age=0, must-revalidate"
								},
								{
									"key": "Pragma",
									"value": "no-cache"
								},
								{
									"key": "Expires",
									"value": "0"
								},
								{
									"key": "X-Frame-Options",
									"value": "DENY"
								},
								{
									"key": "Content-Type",
									"value": "application/json;charset=UTF-8"
								},
								{
									"key": "Transfer-Encoding",
									"value": "chunked"
								},
								{
									"key": "Date",
									"value": "Mon, 23 Dec 2019 10:13:49 GMT"
								}
							],
							"cookie": [],
							"body": "{\n    \"statuscode\": 200,\n    \"data\": {\n        \"id\": 2,\n        \"name\": \"first exam\",\n        \"examType\": \"S3\",\n        \"examModel\": \"2\",\n        \"durationHours\": 2,\n        \"durationMinutes\": 1,\n        \"correctMark\": 10,\n        \"negativeMark\": 10,\n        \"examDate\": null,\n        \"createdAt\": \"2019-12-23T15:43:49.471\",\n        \"updatedAt\": \"2019-12-23T15:43:49.471\"\n    },\n    \"message\": \"Created Successfully.\",\n    \"timestamp\": \"2019-12-23T10:13:49.936+0000\",\n    \"status\": true\n}"
						}
					]
				}
			],
			"protocolProfileBehavior": {}
		},
		{
			"name": "online question",
			"item": [
				{
					"name": "localhost:8080/api/onlinequestion",
					"request": {
						"method": "POST",
						"header": [
							{
								"key": "Content-Type",
								"name": "Content-Type",
								"value": "application/json",
								"type": "text"
							}
						],
						"body": {
							"mode": "raw",
							"raw": "{\n    \"courseId\": \"1\",\n    \"subjectId\": \"1\",\n    \"facultyId\": \"3\",\n    \"questionYearId\": \"1\",\n    \"difficultyLevel\": \"updated1\",\n    \"format\": \"xcv1\",\n    \"solutions\": \"cvxc1\",\n    \"active\": true,\n    \"onlineQuestionPart\": [\n        {\n            \"questionType\": \"questionType1\",\n            \"questionText\": \"questionText\",\n            \"onlineQuestionOptions\": [\n                {\n                    \"answerValue\": \"ans1\",\n                    \"isCorrect\": \"true\"\n                },\n                {\n                    \"answerValue\": \"ans2\",\n                    \"isCorrect\": \"false\"\n                }\n            ]\n        },\n        {\n            \"questionType\": \"questionType1\",\n            \"questionText\": \"questionText\",\n            \"onlineQuestionOptions\": [\n                {\n                    \"answerValue\": \"ans1\",\n                    \"isCorrect\": \"true\"\n                },\n                {\n                    \"answerValue\": \"ans2\",\n                    \"isCorrect\": \"false\"\n                },\n                {\n                    \"answerValue\": \"ans2\",\n                    \"isCorrect\": \"false\"\n                },\n                {\n                    \"answerValue\": \"ans2\",\n                    \"isCorrect\": \"false\"\n                },\n                {\n                    \"answerValue\": \"ans2\",\n                    \"isCorrect\": \"false\"\n                }\n            ]\n        }\n    ]\n}",
							"options": {
								"raw": {
									"language": "json"
								}
							}
						},
						"url": {
							"raw": "localhost:8080/api/onlinequestion",
							"host": [
								"localhost"
							],
							"port": "8080",
							"path": [
								"api",
								"onlinequestion"
							]
						}
					},
					"response": []
				}
			],
			"protocolProfileBehavior": {}
		},
		{
			"name": "faculty",
			"item": [
				{
					"name": "http://localhost:8080/api/faculty",
					"request": {
						"method": "POST",
						"header": [
							{
								"key": "Content-Type",
								"name": "Content-Type",
								"value": "application/json",
								"type": "text"
							}
						],
						"body": {
							"mode": "raw",
							"raw": "{\"name\" : \"faculty Name1\",\"address\" : \"Faculty Address1\",\"gender\" : \"Gender1\",\"phone1\" : \"12345\",\"phone2\" : \"12345\",\"remark\" : \" Faculty Remark\"}",
							"options": {
								"raw": {
									"language": "json"
								}
							}
						},
						"url": {
							"raw": "http://localhost:8080/api/faculty",
							"protocol": "http",
							"host": [
								"localhost"
							],
							"port": "8080",
							"path": [
								"api",
								"faculty"
							]
						}
					},
					"response": []
				}
			],
			"protocolProfileBehavior": {}
		},
		{
			"name": "Question year",
			"item": [
				{
					"name": "http://localhost:8080/api/questionyear",
					"request": {
						"method": "POST",
						"header": [],
						"url": {
							"raw": "http://localhost:8080/api/questionyear",
							"protocol": "http",
							"host": [
								"localhost"
							],
							"port": "8080",
							"path": [
								"api",
								"questionyear"
							]
						}
					},
					"response": []
				}
			],
			"protocolProfileBehavior": {}
		}
	],
	"auth": {
		"type": "bearer",
		"bearer": [
			{
				"key": "token",
				"value": "eyJhbGciOiJIUzI1NiIsInR5cCI6IkpXVCJ9.eyJ1c2VyX25hbWUiOiJhZG1pbiIsInNjb3BlIjpbInJlYWQiLCJ3cml0ZSIsInRydXN0Il0sInVzZXJ0eXBlIjoiQWRtaW4iLCJleHAiOjE1NzczNTE4ODgsImF1dGhvcml0aWVzIjpbIlJPTEVfQURNSU4iXSwianRpIjoiNmYzZGE2NjctOTE4YS00MWFkLWFiN2QtMjgwNDViOTMzNmI5IiwiY2xpZW50X2lkIjoiZGV2Z2xhbi1jbGllbnQifQ.rqo83g-JP34mnKaGtpE6gVpOXNWei3z_W5NX9wkCDjM",
				"type": "string"
			}
		]
	},
	"event": [
		{
			"listen": "prerequest",
			"script": {
				"id": "5b713ac3-4a09-48e8-be09-3341d2ade346",
				"type": "text/javascript",
				"exec": [
					""
				]
			}
		},
		{
			"listen": "test",
			"script": {
				"id": "ba5bd75e-5f56-4b9f-ae45-ed61e388dd93",
				"type": "text/javascript",
				"exec": [
					""
				]
			}
		}
	],
	"protocolProfileBehavior": {}
}